%YAML 1.1
%TAG !u! tag:unity3d.com,2011:
--- !u!1045 &1
EditorBuildSettings:
  m_ObjectHideFlags: 0
  serializedVersion: 2
  m_Scenes:
  - enabled: 0
    path: Assets/menu.unity
    guid: ea0f3c30437832044a9454abd11fea71
  - enabled: 0
    path: Assets/RUN.unity
    guid: 79c9db8eb48231f4082a7c475be4cba0
  - enabled: 0
    path: Assets/Joystick Pack/Examples/Example Scene.unity
    guid: 414bddd31c5ea4f4c9f5d1452e5bbb41
  m_configObjects: {}
